{
  "statisticsId": "R2SQ0OoB",
  "owner": {
    "uuid": "R2SQ0OoB",
    "displayName": "displayName",
    "imageUrl": "http://localhost/image_url",
    "profileUrl": "http://localhost/profile_url"
  },
  "commentsCount": 1,
  "likesCount": 1,
  "worksCount": 1,
  "viewsCount": 1,
  "_links": {
    "self": {
      "href": "http://localhost/api/statistics/R2SQ0OoB"
    },
    "works": {
      "href": "http://localhost/api/works/?ownerId=R2SQ0OoB&page=0&size=20&sort=date"
    }
  }
}
